[
  {
    "name": "Boisson"
  },
  {
    "name": "Viande"
  },
  {
    "name": "Gateau"
  },
  {
    "name": "Yaourt"
  },
  {
    "name": "Legume"
  },
  {
    "name": "Fruit"
  },
  {
    "name": "Glaces"
  },
  {
    "name": "Fromage"
  }
]